# fr_tdr works

    Code
      example_fr_tdr
    Message <cliMessage>
      name: my_example_dataset
      path:
      version: 0.1.0
      title: My Example Dataset
      homepage: <https://example.com>
      description: This is the super fake dataset that was generated just for the
      purposes of illustrating the {fr} R package.
    Output
      # A tibble: 26 x 3
         id    score              case 
         <chr> <chr>              <chr>
       1 a     -0.626453810742332 FALSE
       2 b     0.183643324222082  FALSE
       3 c     -0.835628612410047 TRUE 
       4 d     1.59528080213779   TRUE 
       5 e     0.32950777181536   FALSE
       6 f     -0.820468384118015 FALSE
       7 g     0.487429052428485  FALSE
       8 h     0.738324705129217  TRUE 
       9 i     0.575781351653492  TRUE 
      10 j     -0.305388387156356 FALSE
      # i 16 more rows
