read a tabular-data-resource into R — read_fr_tdr • fr
…
    a fr_tdr object

    Details

    A file path (or url) representing a folder
that contains a "tabular-data-resource.yaml" can
be used in file.

    Examples

read_fr_tdr(fs::path_package("fr", "hamilton_poverty_2020"))
#> hamilton_poverty_2020
#> - version: 0.0.1
#> - title: Hamilton County Poverty Rates in 2020
#> # A tibble: 226 × 3
#>    census_tract_id_2020  year fraction_poverty
#>    <chr>                <dbl>            <dbl>
#>  1 39061021508           2020            0.057
#>  2 39061021421           2020            0.031
#>  3 39061023300           2020            0.03 
#>  4 39061002000           2020            0.098
#>  5 39061002500           2020            0.442
#>  6 39061007700           2020            0.603
#>  7 39061009902           2020            0.15 
#>  8 39061010700           2020            0.15 
#>  9 39061023902           2020            0.013
#> 10 39061022301           2020            0.247
#> # ℹ 216 more rows
…
