Read and manipulate a tabular-data-resource • fr
…
Read the hamilton_poverty_2020 tdr into R by specifying
the location of the tabular-data-resource file or to a folder
containing a tabular-data-resource.yaml file:

d_fr <- read_fr_tdr(fs::path_package("fr", "hamilton_poverty_2020"))

Print the returned fr_tdr (frictionless
tabular-data-resource) object to view all of the table-specific metadata
descriptors and the underlying data:

d_fr
#> hamilton_poverty_2020
#> - version: 0.0.1
#> - title: Hamilton County Poverty Rates in 2020
#> # A tibble: 226 × 3
#>    census_tract_id_2020  year fraction_poverty
#>    <chr>                <dbl>            <dbl>
#>  1 39061021508           2020            0.057
#>  2 39061021421           2020            0.031
#>  3 39061023300           2020            0.03 
#>  4 39061002000           2020            0.098
#>  5 39061002500           2020            0.442
#>  6 39061007700           2020            0.603
#>  7 39061009902           2020            0.15 
#>  8 39061010700           2020            0.15 
#>  9 39061023902           2020            0.013
#> 10 39061022301           2020            0.247
#> # ℹ 216 more rows
…
In this case, explicitly convert the fr_tdr object to a
tibble by dropping the metadata attributes using as_tibble,
as_data_frame, or as.data.frame and then use
as_fr_tdr() while specifying the original
fr_tdr object as a template to convert back to a
fr_tdr object:

d_fr |>
  tibble::as_tibble() |>
  dplyr::mutate(high_poverty = fraction_poverty > median(fraction_poverty)) |>
  as_fr_tdr(.template = d_fr)
#> hamilton_poverty_2020
#> - version: 0.0.1
#> - title: Hamilton County Poverty Rates in 2020
#> # A tibble: 226 × 4
#>    census_tract_id_2020  year fraction_poverty high_poverty
#>    <chr>                <dbl>            <dbl> <lgl>       
#>  1 39061021508           2020            0.057 FALSE       
#>  2 39061021421           2020            0.031 FALSE       
#>  3 39061023300           2020            0.03  FALSE       
#>  4 39061002000           2020            0.098 FALSE       
#>  5 39061002500           2020            0.442 TRUE        
#>  6 39061007700           2020            0.603 TRUE        
#>  7 39061009902           2020            0.15  TRUE        
#>  8 39061010700           2020            0.15  TRUE        
#>  9 39061023902           2020            0.013 FALSE       
#> 10 39061022301           2020            0.247 TRUE        
#> # ℹ 216 more rows

Shortcuts are provided for some functions from {dplyr} (see
dplyr_methods() for a full list).

d_fr |>
  fr_mutate(high_poverty = fraction_poverty > median(fraction_poverty)) |>
  fr_select(-year) |>
  fr_arrange(desc(fraction_poverty))
#> hamilton_poverty_2020
#> - version: 0.0.1
#> - title: Hamilton County Poverty Rates in 2020
#> # A tibble: 226 × 3
#>    census_tract_id_2020 fraction_poverty high_poverty
#>    <chr>                           <dbl> <lgl>       
#>  1 39061008502                     0.754 TRUE        
#>  2 39061026300                     0.734 TRUE        
#>  3 39061026900                     0.69  TRUE        
#>  4 39061007700                     0.603 TRUE        
#>  5 39061022700                     0.599 TRUE        
#>  6 39061003000                     0.592 TRUE        
#>  7 39061002901                     0.576 TRUE        
#>  8 39061006600                     0.561 TRUE        
#>  9 39061008000                     0.556 TRUE        
#> 10 39061009300                     0.54  TRUE        
#> # ℹ 216 more rows
…
d_fr_new <-
  left_join(
    as_tibble(d_fr),
    d_extant,
    by = join_by(census_tract_id_2020 == census_tract_id_2020)
  ) |>
  as_fr_tdr(.template = d_fr) |>
  update_field("score", description = "the score")

d_fr_new
#> hamilton_poverty_2020
#> - version: 0.0.1
#> - title: Hamilton County Poverty Rates in 2020
#> # A tibble: 226 × 4
#>    census_tract_id_2020  year fraction_poverty score
#>    <chr>                <dbl>            <dbl> <dbl>
#>  1 39061021508           2020            0.057  1.06
#>  2 39061021421           2020            0.031  1.03
#>  3 39061023300           2020            0.03   1.03
#>  4 39061002000           2020            0.098  1.10
#>  5 39061002500           2020            0.442  1.44
#>  6 39061007700           2020            0.603  1.60
#>  7 39061009902           2020            0.15   1.15
#>  8 39061010700           2020            0.15   1.15
#>  9 39061023902           2020            0.013  1.01
#> 10 39061022301           2020            0.247  1.25
#> # ℹ 216 more rows
…
